module gitlab.com/0xmohit/cockroach-go/v2

go 1.13

require (
	github.com/gofrs/flock v0.8.1
	github.com/jackc/pgx/v4 v4.16.1
	github.com/jmoiron/sqlx v1.3.5
	github.com/lib/pq v1.10.6
	github.com/pkg/errors v0.9.1 // indirect
	github.com/shopspring/decimal v1.3.1 // indirect
	github.com/stretchr/testify v1.7.0
	golang.org/x/crypto v0.0.0-20220517005047-85d78b3ac167 // indirect
	golang.org/x/sys v0.0.0-20220513210249-45d2b4557a2a // indirect
	gorm.io/driver/postgres v1.3.5
	gorm.io/gorm v1.23.5
)
